{
  "measurements": [
    {
      "benchmark": "maildir-mini",
      "op": "Start",
      "measurements": [
        {
          "DurationMs": 162
        }
      ]
    },
    {
      "benchmark": "maildir-mini",
      "op": "Create",
      "measurements": [
        {
          "DurationMs": 195
        }
      ]
    },
    {
      "benchmark": "maildir-mini",
      "op": "ManifestLive",
      "measurements": [
        {
          "DurationMs": 440
        }
      ]
    },
    {
      "benchmark": "maildir-mini",
      "op": "Backup",
      "measurements": [
        {
          "TotalFiles": 10001
        },
        {
          "TotalData": 41115648
        },
        {
          "DurationMs": 13353
        }
      ]
    },
    {
      "benchmark": "maildir-mini",
      "op": "ManifestLive",
      "measurements": [
        {
          "DurationMs": 328
        }
      ]
    },
    {
      "benchmark": "maildir-mini",
      "op": "CompareManiests",
      "measurements": [
        {
          "DurationMs": 10
        }
      ]
    },
    {
      "benchmark": "maildir-mini",
      "op": "ManifestLive",
      "measurements": [
        {
          "DurationMs": 400
        }
      ]
    },
    {
      "benchmark": "maildir-mini",
      "op": "Backup",
      "measurements": [
        {
          "TotalFiles": 10001
        },
        {
          "TotalData": 41115648
        },
        {
          "DurationMs": 634
        }
      ]
    },
    {
      "benchmark": "maildir-mini",
      "op": "ManifestLive",
      "measurements": [
        {
          "DurationMs": 396
        }
      ]
    },
    {
      "benchmark": "maildir-mini",
      "op": "CompareManiests",
      "measurements": [
        {
          "DurationMs": 10
        }
      ]
    },
    {
      "benchmark": "maildir-mini",
      "op": "ManifestLive",
      "measurements": [
        {
          "DurationMs": 389
        }
      ]
    },
    {
      "benchmark": "maildir-mini",
      "op": "Backup",
      "measurements": [
        {
          "TotalFiles": 10001
        },
        {
          "TotalData": 41115648
        },
        {
          "DurationMs": 449
        }
      ]
    },
    {
      "benchmark": "maildir-mini",
      "op": "ManifestLive",
      "measurements": [
        {
          "DurationMs": 405
        }
      ]
    },
    {
      "benchmark": "maildir-mini",
      "op": "CompareManiests",
      "measurements": [
        {
          "DurationMs": 10
        }
      ]
    },
    {
      "benchmark": "maildir-mini",
      "op": "ManifestLive",
      "measurements": [
        {
          "DurationMs": 358
        }
      ]
    },
    {
      "benchmark": "maildir-mini",
      "op": "Backup",
      "measurements": [
        {
          "TotalFiles": 10001
        },
        {
          "TotalData": 41115648
        },
        {
          "DurationMs": 406
        }
      ]
    },
    {
      "benchmark": "maildir-mini",
      "op": "ManifestLive",
      "measurements": [
        {
          "DurationMs": 400
        }
      ]
    },
    {
      "benchmark": "maildir-mini",
      "op": "CompareManiests",
      "measurements": [
        {
          "DurationMs": 10
        }
      ]
    },
    {
      "benchmark": "maildir-mini",
      "op": "Restore",
      "measurements": [
        {
          "DurationMs": 2241
        }
      ]
    },
    {
      "benchmark": "maildir-mini",
      "op": "ManifestRestored",
      "measurements": [
        {
          "DurationMs": 354
        }
      ]
    },
    {
      "benchmark": "maildir-mini",
      "op": "CompareManiests",
      "measurements": [
        {
          "DurationMs": 10
        }
      ]
    },
    {
      "benchmark": "maildir-mini",
      "op": "Restore",
      "measurements": [
        {
          "DurationMs": 2512
        }
      ]
    },
    {
      "benchmark": "maildir-mini",
      "op": "ManifestRestored",
      "measurements": [
        {
          "DurationMs": 339
        }
      ]
    },
    {
      "benchmark": "maildir-mini",
      "op": "CompareManiests",
      "measurements": [
        {
          "DurationMs": 10
        }
      ]
    },
    {
      "benchmark": "maildir-mini",
      "op": "Restore",
      "measurements": [
        {
          "DurationMs": 2412
        }
      ]
    },
    {
      "benchmark": "maildir-mini",
      "op": "ManifestRestored",
      "measurements": [
        {
          "DurationMs": 304
        }
      ]
    },
    {
      "benchmark": "maildir-mini",
      "op": "CompareManiests",
      "measurements": [
        {
          "DurationMs": 10
        }
      ]
    },
    {
      "benchmark": "maildir-mini",
      "op": "Restore",
      "measurements": [
        {
          "DurationMs": 2474
        }
      ]
    },
    {
      "benchmark": "maildir-mini",
      "op": "ManifestRestored",
      "measurements": [
        {
          "DurationMs": 351
        }
      ]
    },
    {
      "benchmark": "maildir-mini",
      "op": "CompareManiests",
      "measurements": [
        {
          "DurationMs": 10
        }
      ]
    },
    {
      "benchmark": "maildir-mini",
      "op": "Stop",
      "measurements": [
        {
          "DurationMs": 409
        }
      ]
    },
    {
      "benchmark": "video-small",
      "op": "Start",
      "measurements": [
        {
          "DurationMs": 249
        }
      ]
    },
    {
      "benchmark": "video-small",
      "op": "Create",
      "measurements": [
        {
          "DurationMs": 16
        }
      ]
    },
    {
      "benchmark": "video-small",
      "op": "ManifestLive",
      "measurements": [
        {
          "DurationMs": 14
        }
      ]
    },
    {
      "benchmark": "video-small",
      "op": "Backup",
      "measurements": [
        {
          "TotalFiles": 5
        },
        {
          "TotalData": 4198400
        },
        {
          "DurationMs": 325
        }
      ]
    },
    {
      "benchmark": "video-small",
      "op": "ManifestLive",
      "measurements": [
        {
          "DurationMs": 15
        }
      ]
    },
    {
      "benchmark": "video-small",
      "op": "CompareManiests",
      "measurements": [
        {
          "DurationMs": 10
        }
      ]
    },
    {
      "benchmark": "video-small",
      "op": "ManifestLive",
      "measurements": [
        {
          "DurationMs": 16
        }
      ]
    },
    {
      "benchmark": "video-small",
      "op": "Backup",
      "measurements": [
        {
          "TotalFiles": 5
        },
        {
          "TotalData": 4198400
        },
        {
          "DurationMs": 106
        }
      ]
    },
    {
      "benchmark": "video-small",
      "op": "ManifestLive",
      "measurements": [
        {
          "DurationMs": 14
        }
      ]
    },
    {
      "benchmark": "video-small",
      "op": "CompareManiests",
      "measurements": [
        {
          "DurationMs": 10
        }
      ]
    },
    {
      "benchmark": "video-small",
      "op": "ManifestLive",
      "measurements": [
        {
          "DurationMs": 14
        }
      ]
    },
    {
      "benchmark": "video-small",
      "op": "Backup",
      "measurements": [
        {
          "TotalFiles": 5
        },
        {
          "TotalData": 4198400
        },
        {
          "DurationMs": 56
        }
      ]
    },
    {
      "benchmark": "video-small",
      "op": "ManifestLive",
      "measurements": [
        {
          "DurationMs": 14
        }
      ]
    },
    {
      "benchmark": "video-small",
      "op": "CompareManiests",
      "measurements": [
        {
          "DurationMs": 10
        }
      ]
    },
    {
      "benchmark": "video-small",
      "op": "ManifestLive",
      "measurements": [
        {
          "DurationMs": 14
        }
      ]
    },
    {
      "benchmark": "video-small",
      "op": "Backup",
      "measurements": [
        {
          "TotalFiles": 5
        },
        {
          "TotalData": 4198400
        },
        {
          "DurationMs": 57
        }
      ]
    },
    {
      "benchmark": "video-small",
      "op": "ManifestLive",
      "measurements": [
        {
          "DurationMs": 14
        }
      ]
    },
    {
      "benchmark": "video-small",
      "op": "CompareManiests",
      "measurements": [
        {
          "DurationMs": 10
        }
      ]
    },
    {
      "benchmark": "video-small",
      "op": "Restore",
      "measurements": [
        {
          "DurationMs": 57
        }
      ]
    },
    {
      "benchmark": "video-small",
      "op": "ManifestRestored",
      "measurements": [
        {
          "DurationMs": 15
        }
      ]
    },
    {
      "benchmark": "video-small",
      "op": "CompareManiests",
      "measurements": [
        {
          "DurationMs": 10
        }
      ]
    },
    {
      "benchmark": "video-small",
      "op": "Restore",
      "measurements": [
        {
          "DurationMs": 61
        }
      ]
    },
    {
      "benchmark": "video-small",
      "op": "ManifestRestored",
      "measurements": [
        {
          "DurationMs": 14
        }
      ]
    },
    {
      "benchmark": "video-small",
      "op": "CompareManiests",
      "measurements": [
        {
          "DurationMs": 10
        }
      ]
    },
    {
      "benchmark": "video-small",
      "op": "Restore",
      "measurements": [
        {
          "DurationMs": 59
        }
      ]
    },
    {
      "benchmark": "video-small",
      "op": "ManifestRestored",
      "measurements": [
        {
          "DurationMs": 14
        }
      ]
    },
    {
      "benchmark": "video-small",
      "op": "CompareManiests",
      "measurements": [
        {
          "DurationMs": 10
        }
      ]
    },
    {
      "benchmark": "video-small",
      "op": "Restore",
      "measurements": [
        {
          "DurationMs": 60
        }
      ]
    },
    {
      "benchmark": "video-small",
      "op": "ManifestRestored",
      "measurements": [
        {
          "DurationMs": 17
        }
      ]
    },
    {
      "benchmark": "video-small",
      "op": "CompareManiests",
      "measurements": [
        {
          "DurationMs": 10
        }
      ]
    },
    {
      "benchmark": "video-small",
      "op": "Stop",
      "measurements": [
        {
          "DurationMs": 13
        }
      ]
    },
    {
      "benchmark": "video-medium",
      "op": "Start",
      "measurements": [
        {
          "DurationMs": 195
        }
      ]
    },
    {
      "benchmark": "video-medium",
      "op": "Create",
      "measurements": [
        {
          "DurationMs": 20723
        }
      ]
    },
    {
      "benchmark": "video-medium",
      "op": "ManifestLive",
      "measurements": [
        {
          "DurationMs": 11181
        }
      ]
    },
    {
      "benchmark": "video-medium",
      "op": "Backup",
      "measurements": [
        {
          "TotalFiles": 2
        },
        {
          "TotalData": 10737422336
        },
        {
          "DurationMs": 547483
        }
      ]
    },
    {
      "benchmark": "video-medium",
      "op": "ManifestLive",
      "measurements": [
        {
          "DurationMs": 11692
        }
      ]
    },
    {
      "benchmark": "video-medium",
      "op": "CompareManiests",
      "measurements": [
        {
          "DurationMs": 10
        }
      ]
    },
    {
      "benchmark": "video-medium",
      "op": "ManifestLive",
      "measurements": [
        {
          "DurationMs": 11577
        }
      ]
    },
    {
      "benchmark": "video-medium",
      "op": "Backup",
      "measurements": [
        {
          "TotalFiles": 2
        },
        {
          "TotalData": 10737422336
        },
        {
          "DurationMs": 139
        }
      ]
    },
    {
      "benchmark": "video-medium",
      "op": "ManifestLive",
      "measurements": [
        {
          "DurationMs": 11567
        }
      ]
    },
    {
      "benchmark": "video-medium",
      "op": "CompareManiests",
      "measurements": [
        {
          "DurationMs": 10
        }
      ]
    },
    {
      "benchmark": "video-medium",
      "op": "ManifestLive",
      "measurements": [
        {
          "DurationMs": 11694
        }
      ]
    },
    {
      "benchmark": "video-medium",
      "op": "Backup",
      "measurements": [
        {
          "TotalFiles": 2
        },
        {
          "TotalData": 10737422336
        },
        {
          "DurationMs": 69
        }
      ]
    },
    {
      "benchmark": "video-medium",
      "op": "ManifestLive",
      "measurements": [
        {
          "DurationMs": 11670
        }
      ]
    },
    {
      "benchmark": "video-medium",
      "op": "CompareManiests",
      "measurements": [
        {
          "DurationMs": 10
        }
      ]
    },
    {
      "benchmark": "video-medium",
      "op": "ManifestLive",
      "measurements": [
        {
          "DurationMs": 11690
        }
      ]
    },
    {
      "benchmark": "video-medium",
      "op": "Backup",
      "measurements": [
        {
          "TotalFiles": 2
        },
        {
          "TotalData": 10737422336
        },
        {
          "DurationMs": 90
        }
      ]
    },
    {
      "benchmark": "video-medium",
      "op": "ManifestLive",
      "measurements": [
        {
          "DurationMs": 11619
        }
      ]
    },
    {
      "benchmark": "video-medium",
      "op": "CompareManiests",
      "measurements": [
        {
          "DurationMs": 10
        }
      ]
    },
    {
      "benchmark": "video-medium",
      "op": "Restore",
      "measurements": [
        {
          "DurationMs": 87717
        }
      ]
    },
    {
      "benchmark": "video-medium",
      "op": "ManifestRestored",
      "measurements": [
        {
          "DurationMs": 11987
        }
      ]
    },
    {
      "benchmark": "video-medium",
      "op": "CompareManiests",
      "measurements": [
        {
          "DurationMs": 10
        }
      ]
    },
    {
      "benchmark": "video-medium",
      "op": "Restore",
      "measurements": [
        {
          "DurationMs": 115236
        }
      ]
    },
    {
      "benchmark": "video-medium",
      "op": "ManifestRestored",
      "measurements": [
        {
          "DurationMs": 11753
        }
      ]
    },
    {
      "benchmark": "video-medium",
      "op": "CompareManiests",
      "measurements": [
        {
          "DurationMs": 10
        }
      ]
    },
    {
      "benchmark": "video-medium",
      "op": "Restore",
      "measurements": [
        {
          "DurationMs": 97226
        }
      ]
    },
    {
      "benchmark": "video-medium",
      "op": "ManifestRestored",
      "measurements": [
        {
          "DurationMs": 12381
        }
      ]
    },
    {
      "benchmark": "video-medium",
      "op": "CompareManiests",
      "measurements": [
        {
          "DurationMs": 10
        }
      ]
    },
    {
      "benchmark": "video-medium",
      "op": "Restore",
      "measurements": [
        {
          "DurationMs": 98323
        }
      ]
    },
    {
      "benchmark": "video-medium",
      "op": "ManifestRestored",
      "measurements": [
        {
          "DurationMs": 11124
        }
      ]
    },
    {
      "benchmark": "video-medium",
      "op": "CompareManiests",
      "measurements": [
        {
          "DurationMs": 10
        }
      ]
    },
    {
      "benchmark": "video-medium",
      "op": "Stop",
      "measurements": [
        {
          "DurationMs": 565
        }
      ]
    }
  ],
  "obnam_version": "obnam-backup 0.8.0",
  "obnam_commit": "eede9964272bb74ce794d4082be2d8dd4fbd1992",
  "obnam_benchmark_version": "v0.1.0+2 (ed1c89907 2022-01-31) dirty 7 modifications",
  "benchmark_started": "2022-11-08T123226",
  "hostname": "obnam-bench",
  "host_cpus": 4,
  "host_ram": 4121980928
}