{
  "measurements": [
    {
      "benchmark": "maildir-mini",
      "op": "Start",
      "measurements": [
        {
          "DurationMs": 156
        }
      ]
    },
    {
      "benchmark": "maildir-mini",
      "op": "Create",
      "measurements": [
        {
          "DurationMs": 199
        }
      ]
    },
    {
      "benchmark": "maildir-mini",
      "op": "ManifestLive",
      "measurements": [
        {
          "DurationMs": 370
        }
      ]
    },
    {
      "benchmark": "maildir-mini",
      "op": "Backup",
      "measurements": [
        {
          "TotalFiles": 10001
        },
        {
          "TotalData": 41115648
        },
        {
          "DurationMs": 13158
        }
      ]
    },
    {
      "benchmark": "maildir-mini",
      "op": "ManifestLive",
      "measurements": [
        {
          "DurationMs": 361
        }
      ]
    },
    {
      "benchmark": "maildir-mini",
      "op": "CompareManiests",
      "measurements": [
        {
          "DurationMs": 10
        }
      ]
    },
    {
      "benchmark": "maildir-mini",
      "op": "ManifestLive",
      "measurements": [
        {
          "DurationMs": 355
        }
      ]
    },
    {
      "benchmark": "maildir-mini",
      "op": "Backup",
      "measurements": [
        {
          "TotalFiles": 10001
        },
        {
          "TotalData": 41115648
        },
        {
          "DurationMs": 607
        }
      ]
    },
    {
      "benchmark": "maildir-mini",
      "op": "ManifestLive",
      "measurements": [
        {
          "DurationMs": 372
        }
      ]
    },
    {
      "benchmark": "maildir-mini",
      "op": "CompareManiests",
      "measurements": [
        {
          "DurationMs": 10
        }
      ]
    },
    {
      "benchmark": "maildir-mini",
      "op": "ManifestLive",
      "measurements": [
        {
          "DurationMs": 365
        }
      ]
    },
    {
      "benchmark": "maildir-mini",
      "op": "Backup",
      "measurements": [
        {
          "TotalFiles": 10001
        },
        {
          "TotalData": 41115648
        },
        {
          "DurationMs": 431
        }
      ]
    },
    {
      "benchmark": "maildir-mini",
      "op": "ManifestLive",
      "measurements": [
        {
          "DurationMs": 392
        }
      ]
    },
    {
      "benchmark": "maildir-mini",
      "op": "CompareManiests",
      "measurements": [
        {
          "DurationMs": 10
        }
      ]
    },
    {
      "benchmark": "maildir-mini",
      "op": "ManifestLive",
      "measurements": [
        {
          "DurationMs": 356
        }
      ]
    },
    {
      "benchmark": "maildir-mini",
      "op": "Backup",
      "measurements": [
        {
          "TotalFiles": 10001
        },
        {
          "TotalData": 41115648
        },
        {
          "DurationMs": 412
        }
      ]
    },
    {
      "benchmark": "maildir-mini",
      "op": "ManifestLive",
      "measurements": [
        {
          "DurationMs": 330
        }
      ]
    },
    {
      "benchmark": "maildir-mini",
      "op": "CompareManiests",
      "measurements": [
        {
          "DurationMs": 10
        }
      ]
    },
    {
      "benchmark": "maildir-mini",
      "op": "Restore",
      "measurements": [
        {
          "DurationMs": 2457
        }
      ]
    },
    {
      "benchmark": "maildir-mini",
      "op": "ManifestRestored",
      "measurements": [
        {
          "DurationMs": 360
        }
      ]
    },
    {
      "benchmark": "maildir-mini",
      "op": "CompareManiests",
      "measurements": [
        {
          "DurationMs": 10
        }
      ]
    },
    {
      "benchmark": "maildir-mini",
      "op": "Restore",
      "measurements": [
        {
          "DurationMs": 2273
        }
      ]
    },
    {
      "benchmark": "maildir-mini",
      "op": "ManifestRestored",
      "measurements": [
        {
          "DurationMs": 358
        }
      ]
    },
    {
      "benchmark": "maildir-mini",
      "op": "CompareManiests",
      "measurements": [
        {
          "DurationMs": 10
        }
      ]
    },
    {
      "benchmark": "maildir-mini",
      "op": "Restore",
      "measurements": [
        {
          "DurationMs": 2510
        }
      ]
    },
    {
      "benchmark": "maildir-mini",
      "op": "ManifestRestored",
      "measurements": [
        {
          "DurationMs": 328
        }
      ]
    },
    {
      "benchmark": "maildir-mini",
      "op": "CompareManiests",
      "measurements": [
        {
          "DurationMs": 10
        }
      ]
    },
    {
      "benchmark": "maildir-mini",
      "op": "Restore",
      "measurements": [
        {
          "DurationMs": 2428
        }
      ]
    },
    {
      "benchmark": "maildir-mini",
      "op": "ManifestRestored",
      "measurements": [
        {
          "DurationMs": 392
        }
      ]
    },
    {
      "benchmark": "maildir-mini",
      "op": "CompareManiests",
      "measurements": [
        {
          "DurationMs": 10
        }
      ]
    },
    {
      "benchmark": "maildir-mini",
      "op": "Stop",
      "measurements": [
        {
          "DurationMs": 341
        }
      ]
    },
    {
      "benchmark": "video-small",
      "op": "Start",
      "measurements": [
        {
          "DurationMs": 187
        }
      ]
    },
    {
      "benchmark": "video-small",
      "op": "Create",
      "measurements": [
        {
          "DurationMs": 16
        }
      ]
    },
    {
      "benchmark": "video-small",
      "op": "ManifestLive",
      "measurements": [
        {
          "DurationMs": 14
        }
      ]
    },
    {
      "benchmark": "video-small",
      "op": "Backup",
      "measurements": [
        {
          "TotalFiles": 5
        },
        {
          "TotalData": 4198400
        },
        {
          "DurationMs": 333
        }
      ]
    },
    {
      "benchmark": "video-small",
      "op": "ManifestLive",
      "measurements": [
        {
          "DurationMs": 14
        }
      ]
    },
    {
      "benchmark": "video-small",
      "op": "CompareManiests",
      "measurements": [
        {
          "DurationMs": 10
        }
      ]
    },
    {
      "benchmark": "video-small",
      "op": "ManifestLive",
      "measurements": [
        {
          "DurationMs": 13
        }
      ]
    },
    {
      "benchmark": "video-small",
      "op": "Backup",
      "measurements": [
        {
          "TotalFiles": 5
        },
        {
          "TotalData": 4198400
        },
        {
          "DurationMs": 99
        }
      ]
    },
    {
      "benchmark": "video-small",
      "op": "ManifestLive",
      "measurements": [
        {
          "DurationMs": 14
        }
      ]
    },
    {
      "benchmark": "video-small",
      "op": "CompareManiests",
      "measurements": [
        {
          "DurationMs": 10
        }
      ]
    },
    {
      "benchmark": "video-small",
      "op": "ManifestLive",
      "measurements": [
        {
          "DurationMs": 13
        }
      ]
    },
    {
      "benchmark": "video-small",
      "op": "Backup",
      "measurements": [
        {
          "TotalFiles": 5
        },
        {
          "TotalData": 4198400
        },
        {
          "DurationMs": 55
        }
      ]
    },
    {
      "benchmark": "video-small",
      "op": "ManifestLive",
      "measurements": [
        {
          "DurationMs": 15
        }
      ]
    },
    {
      "benchmark": "video-small",
      "op": "CompareManiests",
      "measurements": [
        {
          "DurationMs": 10
        }
      ]
    },
    {
      "benchmark": "video-small",
      "op": "ManifestLive",
      "measurements": [
        {
          "DurationMs": 15
        }
      ]
    },
    {
      "benchmark": "video-small",
      "op": "Backup",
      "measurements": [
        {
          "TotalFiles": 5
        },
        {
          "TotalData": 4198400
        },
        {
          "DurationMs": 56
        }
      ]
    },
    {
      "benchmark": "video-small",
      "op": "ManifestLive",
      "measurements": [
        {
          "DurationMs": 15
        }
      ]
    },
    {
      "benchmark": "video-small",
      "op": "CompareManiests",
      "measurements": [
        {
          "DurationMs": 10
        }
      ]
    },
    {
      "benchmark": "video-small",
      "op": "Restore",
      "measurements": [
        {
          "DurationMs": 53
        }
      ]
    },
    {
      "benchmark": "video-small",
      "op": "ManifestRestored",
      "measurements": [
        {
          "DurationMs": 14
        }
      ]
    },
    {
      "benchmark": "video-small",
      "op": "CompareManiests",
      "measurements": [
        {
          "DurationMs": 10
        }
      ]
    },
    {
      "benchmark": "video-small",
      "op": "Restore",
      "measurements": [
        {
          "DurationMs": 56
        }
      ]
    },
    {
      "benchmark": "video-small",
      "op": "ManifestRestored",
      "measurements": [
        {
          "DurationMs": 14
        }
      ]
    },
    {
      "benchmark": "video-small",
      "op": "CompareManiests",
      "measurements": [
        {
          "DurationMs": 10
        }
      ]
    },
    {
      "benchmark": "video-small",
      "op": "Restore",
      "measurements": [
        {
          "DurationMs": 56
        }
      ]
    },
    {
      "benchmark": "video-small",
      "op": "ManifestRestored",
      "measurements": [
        {
          "DurationMs": 15
        }
      ]
    },
    {
      "benchmark": "video-small",
      "op": "CompareManiests",
      "measurements": [
        {
          "DurationMs": 10
        }
      ]
    },
    {
      "benchmark": "video-small",
      "op": "Restore",
      "measurements": [
        {
          "DurationMs": 57
        }
      ]
    },
    {
      "benchmark": "video-small",
      "op": "ManifestRestored",
      "measurements": [
        {
          "DurationMs": 14
        }
      ]
    },
    {
      "benchmark": "video-small",
      "op": "CompareManiests",
      "measurements": [
        {
          "DurationMs": 10
        }
      ]
    },
    {
      "benchmark": "video-small",
      "op": "Stop",
      "measurements": [
        {
          "DurationMs": 13
        }
      ]
    },
    {
      "benchmark": "video-medium",
      "op": "Start",
      "measurements": [
        {
          "DurationMs": 250
        }
      ]
    },
    {
      "benchmark": "video-medium",
      "op": "Create",
      "measurements": [
        {
          "DurationMs": 20432
        }
      ]
    },
    {
      "benchmark": "video-medium",
      "op": "ManifestLive",
      "measurements": [
        {
          "DurationMs": 11282
        }
      ]
    },
    {
      "benchmark": "video-medium",
      "op": "Backup",
      "measurements": [
        {
          "TotalFiles": 2
        },
        {
          "TotalData": 10737422336
        },
        {
          "DurationMs": 547488
        }
      ]
    },
    {
      "benchmark": "video-medium",
      "op": "ManifestLive",
      "measurements": [
        {
          "DurationMs": 12235
        }
      ]
    },
    {
      "benchmark": "video-medium",
      "op": "CompareManiests",
      "measurements": [
        {
          "DurationMs": 10
        }
      ]
    },
    {
      "benchmark": "video-medium",
      "op": "ManifestLive",
      "measurements": [
        {
          "DurationMs": 11482
        }
      ]
    },
    {
      "benchmark": "video-medium",
      "op": "Backup",
      "measurements": [
        {
          "TotalFiles": 2
        },
        {
          "TotalData": 10737422336
        },
        {
          "DurationMs": 141
        }
      ]
    },
    {
      "benchmark": "video-medium",
      "op": "ManifestLive",
      "measurements": [
        {
          "DurationMs": 11493
        }
      ]
    },
    {
      "benchmark": "video-medium",
      "op": "CompareManiests",
      "measurements": [
        {
          "DurationMs": 10
        }
      ]
    },
    {
      "benchmark": "video-medium",
      "op": "ManifestLive",
      "measurements": [
        {
          "DurationMs": 11715
        }
      ]
    },
    {
      "benchmark": "video-medium",
      "op": "Backup",
      "measurements": [
        {
          "TotalFiles": 2
        },
        {
          "TotalData": 10737422336
        },
        {
          "DurationMs": 68
        }
      ]
    },
    {
      "benchmark": "video-medium",
      "op": "ManifestLive",
      "measurements": [
        {
          "DurationMs": 11659
        }
      ]
    },
    {
      "benchmark": "video-medium",
      "op": "CompareManiests",
      "measurements": [
        {
          "DurationMs": 10
        }
      ]
    },
    {
      "benchmark": "video-medium",
      "op": "ManifestLive",
      "measurements": [
        {
          "DurationMs": 11403
        }
      ]
    },
    {
      "benchmark": "video-medium",
      "op": "Backup",
      "measurements": [
        {
          "TotalFiles": 2
        },
        {
          "TotalData": 10737422336
        },
        {
          "DurationMs": 91
        }
      ]
    },
    {
      "benchmark": "video-medium",
      "op": "ManifestLive",
      "measurements": [
        {
          "DurationMs": 11574
        }
      ]
    },
    {
      "benchmark": "video-medium",
      "op": "CompareManiests",
      "measurements": [
        {
          "DurationMs": 10
        }
      ]
    },
    {
      "benchmark": "video-medium",
      "op": "Restore",
      "measurements": [
        {
          "DurationMs": 88107
        }
      ]
    },
    {
      "benchmark": "video-medium",
      "op": "ManifestRestored",
      "measurements": [
        {
          "DurationMs": 11193
        }
      ]
    },
    {
      "benchmark": "video-medium",
      "op": "CompareManiests",
      "measurements": [
        {
          "DurationMs": 10
        }
      ]
    },
    {
      "benchmark": "video-medium",
      "op": "Restore",
      "measurements": [
        {
          "DurationMs": 99279
        }
      ]
    },
    {
      "benchmark": "video-medium",
      "op": "ManifestRestored",
      "measurements": [
        {
          "DurationMs": 12614
        }
      ]
    },
    {
      "benchmark": "video-medium",
      "op": "CompareManiests",
      "measurements": [
        {
          "DurationMs": 10
        }
      ]
    },
    {
      "benchmark": "video-medium",
      "op": "Restore",
      "measurements": [
        {
          "DurationMs": 100657
        }
      ]
    },
    {
      "benchmark": "video-medium",
      "op": "ManifestRestored",
      "measurements": [
        {
          "DurationMs": 12450
        }
      ]
    },
    {
      "benchmark": "video-medium",
      "op": "CompareManiests",
      "measurements": [
        {
          "DurationMs": 10
        }
      ]
    },
    {
      "benchmark": "video-medium",
      "op": "Restore",
      "measurements": [
        {
          "DurationMs": 112280
        }
      ]
    },
    {
      "benchmark": "video-medium",
      "op": "ManifestRestored",
      "measurements": [
        {
          "DurationMs": 12980
        }
      ]
    },
    {
      "benchmark": "video-medium",
      "op": "CompareManiests",
      "measurements": [
        {
          "DurationMs": 10
        }
      ]
    },
    {
      "benchmark": "video-medium",
      "op": "Stop",
      "measurements": [
        {
          "DurationMs": 520
        }
      ]
    }
  ],
  "obnam_version": "obnam-backup 0.8.0",
  "obnam_commit": "a71ffcd6f2017d65fe4591ba36d3daddea8b1b29",
  "obnam_benchmark_version": "v0.1.0+2 (ed1c89907 2022-01-31) dirty 7 modifications",
  "benchmark_started": "2022-11-08T125211",
  "hostname": "obnam-bench",
  "host_cpus": 4,
  "host_ram": 4121980928
}