{
  "measurements": [
    {
      "benchmark": "maildir-mini",
      "op": "Start",
      "measurements": [
        {
          "DurationMs": 183
        }
      ]
    },
    {
      "benchmark": "maildir-mini",
      "op": "Create",
      "measurements": [
        {
          "DurationMs": 196
        }
      ]
    },
    {
      "benchmark": "maildir-mini",
      "op": "ManifestLive",
      "measurements": [
        {
          "DurationMs": 354
        }
      ]
    },
    {
      "benchmark": "maildir-mini",
      "op": "Backup",
      "measurements": [
        {
          "TotalFiles": 10001
        },
        {
          "TotalData": 41115648
        },
        {
          "DurationMs": 18942
        }
      ]
    },
    {
      "benchmark": "maildir-mini",
      "op": "ManifestLive",
      "measurements": [
        {
          "DurationMs": 335
        }
      ]
    },
    {
      "benchmark": "maildir-mini",
      "op": "CompareManiests",
      "measurements": [
        {
          "DurationMs": 10
        }
      ]
    },
    {
      "benchmark": "maildir-mini",
      "op": "ManifestLive",
      "measurements": [
        {
          "DurationMs": 366
        }
      ]
    },
    {
      "benchmark": "maildir-mini",
      "op": "Backup",
      "measurements": [
        {
          "TotalFiles": 10001
        },
        {
          "TotalData": 41115648
        },
        {
          "DurationMs": 7194
        }
      ]
    },
    {
      "benchmark": "maildir-mini",
      "op": "ManifestLive",
      "measurements": [
        {
          "DurationMs": 366
        }
      ]
    },
    {
      "benchmark": "maildir-mini",
      "op": "CompareManiests",
      "measurements": [
        {
          "DurationMs": 10
        }
      ]
    },
    {
      "benchmark": "maildir-mini",
      "op": "ManifestLive",
      "measurements": [
        {
          "DurationMs": 349
        }
      ]
    },
    {
      "benchmark": "maildir-mini",
      "op": "Backup",
      "measurements": [
        {
          "TotalFiles": 10001
        },
        {
          "TotalData": 41115648
        },
        {
          "DurationMs": 7111
        }
      ]
    },
    {
      "benchmark": "maildir-mini",
      "op": "ManifestLive",
      "measurements": [
        {
          "DurationMs": 344
        }
      ]
    },
    {
      "benchmark": "maildir-mini",
      "op": "CompareManiests",
      "measurements": [
        {
          "DurationMs": 10
        }
      ]
    },
    {
      "benchmark": "maildir-mini",
      "op": "ManifestLive",
      "measurements": [
        {
          "DurationMs": 327
        }
      ]
    },
    {
      "benchmark": "maildir-mini",
      "op": "Backup",
      "measurements": [
        {
          "TotalFiles": 10001
        },
        {
          "TotalData": 41115648
        },
        {
          "DurationMs": 7046
        }
      ]
    },
    {
      "benchmark": "maildir-mini",
      "op": "ManifestLive",
      "measurements": [
        {
          "DurationMs": 360
        }
      ]
    },
    {
      "benchmark": "maildir-mini",
      "op": "CompareManiests",
      "measurements": [
        {
          "DurationMs": 11
        }
      ]
    },
    {
      "benchmark": "maildir-mini",
      "op": "Restore",
      "measurements": [
        {
          "DurationMs": 2551
        }
      ]
    },
    {
      "benchmark": "maildir-mini",
      "op": "ManifestRestored",
      "measurements": [
        {
          "DurationMs": 388
        }
      ]
    },
    {
      "benchmark": "maildir-mini",
      "op": "CompareManiests",
      "measurements": [
        {
          "DurationMs": 10
        }
      ]
    },
    {
      "benchmark": "maildir-mini",
      "op": "Restore",
      "measurements": [
        {
          "DurationMs": 2680
        }
      ]
    },
    {
      "benchmark": "maildir-mini",
      "op": "ManifestRestored",
      "measurements": [
        {
          "DurationMs": 413
        }
      ]
    },
    {
      "benchmark": "maildir-mini",
      "op": "CompareManiests",
      "measurements": [
        {
          "DurationMs": 10
        }
      ]
    },
    {
      "benchmark": "maildir-mini",
      "op": "Restore",
      "measurements": [
        {
          "DurationMs": 2442
        }
      ]
    },
    {
      "benchmark": "maildir-mini",
      "op": "ManifestRestored",
      "measurements": [
        {
          "DurationMs": 319
        }
      ]
    },
    {
      "benchmark": "maildir-mini",
      "op": "CompareManiests",
      "measurements": [
        {
          "DurationMs": 10
        }
      ]
    },
    {
      "benchmark": "maildir-mini",
      "op": "Restore",
      "measurements": [
        {
          "DurationMs": 2325
        }
      ]
    },
    {
      "benchmark": "maildir-mini",
      "op": "ManifestRestored",
      "measurements": [
        {
          "DurationMs": 361
        }
      ]
    },
    {
      "benchmark": "maildir-mini",
      "op": "CompareManiests",
      "measurements": [
        {
          "DurationMs": 10
        }
      ]
    },
    {
      "benchmark": "maildir-mini",
      "op": "Stop",
      "measurements": [
        {
          "DurationMs": 497
        }
      ]
    },
    {
      "benchmark": "video-small",
      "op": "Start",
      "measurements": [
        {
          "DurationMs": 190
        }
      ]
    },
    {
      "benchmark": "video-small",
      "op": "Create",
      "measurements": [
        {
          "DurationMs": 16
        }
      ]
    },
    {
      "benchmark": "video-small",
      "op": "ManifestLive",
      "measurements": [
        {
          "DurationMs": 14
        }
      ]
    },
    {
      "benchmark": "video-small",
      "op": "Backup",
      "measurements": [
        {
          "TotalFiles": 5
        },
        {
          "TotalData": 4198400
        },
        {
          "DurationMs": 334
        }
      ]
    },
    {
      "benchmark": "video-small",
      "op": "ManifestLive",
      "measurements": [
        {
          "DurationMs": 15
        }
      ]
    },
    {
      "benchmark": "video-small",
      "op": "CompareManiests",
      "measurements": [
        {
          "DurationMs": 10
        }
      ]
    },
    {
      "benchmark": "video-small",
      "op": "ManifestLive",
      "measurements": [
        {
          "DurationMs": 14
        }
      ]
    },
    {
      "benchmark": "video-small",
      "op": "Backup",
      "measurements": [
        {
          "TotalFiles": 5
        },
        {
          "TotalData": 4198400
        },
        {
          "DurationMs": 123
        }
      ]
    },
    {
      "benchmark": "video-small",
      "op": "ManifestLive",
      "measurements": [
        {
          "DurationMs": 14
        }
      ]
    },
    {
      "benchmark": "video-small",
      "op": "CompareManiests",
      "measurements": [
        {
          "DurationMs": 10
        }
      ]
    },
    {
      "benchmark": "video-small",
      "op": "ManifestLive",
      "measurements": [
        {
          "DurationMs": 14
        }
      ]
    },
    {
      "benchmark": "video-small",
      "op": "Backup",
      "measurements": [
        {
          "TotalFiles": 5
        },
        {
          "TotalData": 4198400
        },
        {
          "DurationMs": 77
        }
      ]
    },
    {
      "benchmark": "video-small",
      "op": "ManifestLive",
      "measurements": [
        {
          "DurationMs": 14
        }
      ]
    },
    {
      "benchmark": "video-small",
      "op": "CompareManiests",
      "measurements": [
        {
          "DurationMs": 10
        }
      ]
    },
    {
      "benchmark": "video-small",
      "op": "ManifestLive",
      "measurements": [
        {
          "DurationMs": 14
        }
      ]
    },
    {
      "benchmark": "video-small",
      "op": "Backup",
      "measurements": [
        {
          "TotalFiles": 5
        },
        {
          "TotalData": 4198400
        },
        {
          "DurationMs": 78
        }
      ]
    },
    {
      "benchmark": "video-small",
      "op": "ManifestLive",
      "measurements": [
        {
          "DurationMs": 14
        }
      ]
    },
    {
      "benchmark": "video-small",
      "op": "CompareManiests",
      "measurements": [
        {
          "DurationMs": 10
        }
      ]
    },
    {
      "benchmark": "video-small",
      "op": "Restore",
      "measurements": [
        {
          "DurationMs": 58
        }
      ]
    },
    {
      "benchmark": "video-small",
      "op": "ManifestRestored",
      "measurements": [
        {
          "DurationMs": 15
        }
      ]
    },
    {
      "benchmark": "video-small",
      "op": "CompareManiests",
      "measurements": [
        {
          "DurationMs": 10
        }
      ]
    },
    {
      "benchmark": "video-small",
      "op": "Restore",
      "measurements": [
        {
          "DurationMs": 57
        }
      ]
    },
    {
      "benchmark": "video-small",
      "op": "ManifestRestored",
      "measurements": [
        {
          "DurationMs": 15
        }
      ]
    },
    {
      "benchmark": "video-small",
      "op": "CompareManiests",
      "measurements": [
        {
          "DurationMs": 10
        }
      ]
    },
    {
      "benchmark": "video-small",
      "op": "Restore",
      "measurements": [
        {
          "DurationMs": 58
        }
      ]
    },
    {
      "benchmark": "video-small",
      "op": "ManifestRestored",
      "measurements": [
        {
          "DurationMs": 14
        }
      ]
    },
    {
      "benchmark": "video-small",
      "op": "CompareManiests",
      "measurements": [
        {
          "DurationMs": 10
        }
      ]
    },
    {
      "benchmark": "video-small",
      "op": "Restore",
      "measurements": [
        {
          "DurationMs": 58
        }
      ]
    },
    {
      "benchmark": "video-small",
      "op": "ManifestRestored",
      "measurements": [
        {
          "DurationMs": 14
        }
      ]
    },
    {
      "benchmark": "video-small",
      "op": "CompareManiests",
      "measurements": [
        {
          "DurationMs": 10
        }
      ]
    },
    {
      "benchmark": "video-small",
      "op": "Stop",
      "measurements": [
        {
          "DurationMs": 13
        }
      ]
    },
    {
      "benchmark": "video-medium",
      "op": "Start",
      "measurements": [
        {
          "DurationMs": 219
        }
      ]
    },
    {
      "benchmark": "video-medium",
      "op": "Create",
      "measurements": [
        {
          "DurationMs": 9938
        }
      ]
    },
    {
      "benchmark": "video-medium",
      "op": "ManifestLive",
      "measurements": [
        {
          "DurationMs": 11544
        }
      ]
    },
    {
      "benchmark": "video-medium",
      "op": "Backup",
      "measurements": [
        {
          "TotalFiles": 2
        },
        {
          "TotalData": 10737422336
        },
        {
          "DurationMs": 563260
        }
      ]
    },
    {
      "benchmark": "video-medium",
      "op": "ManifestLive",
      "measurements": [
        {
          "DurationMs": 13470
        }
      ]
    },
    {
      "benchmark": "video-medium",
      "op": "CompareManiests",
      "measurements": [
        {
          "DurationMs": 10
        }
      ]
    },
    {
      "benchmark": "video-medium",
      "op": "ManifestLive",
      "measurements": [
        {
          "DurationMs": 13631
        }
      ]
    },
    {
      "benchmark": "video-medium",
      "op": "Backup",
      "measurements": [
        {
          "TotalFiles": 2
        },
        {
          "TotalData": 10737422336
        },
        {
          "DurationMs": 161
        }
      ]
    },
    {
      "benchmark": "video-medium",
      "op": "ManifestLive",
      "measurements": [
        {
          "DurationMs": 12839
        }
      ]
    },
    {
      "benchmark": "video-medium",
      "op": "CompareManiests",
      "measurements": [
        {
          "DurationMs": 10
        }
      ]
    },
    {
      "benchmark": "video-medium",
      "op": "ManifestLive",
      "measurements": [
        {
          "DurationMs": 12814
        }
      ]
    },
    {
      "benchmark": "video-medium",
      "op": "Backup",
      "measurements": [
        {
          "TotalFiles": 2
        },
        {
          "TotalData": 10737422336
        },
        {
          "DurationMs": 109
        }
      ]
    },
    {
      "benchmark": "video-medium",
      "op": "ManifestLive",
      "measurements": [
        {
          "DurationMs": 12486
        }
      ]
    },
    {
      "benchmark": "video-medium",
      "op": "CompareManiests",
      "measurements": [
        {
          "DurationMs": 10
        }
      ]
    },
    {
      "benchmark": "video-medium",
      "op": "ManifestLive",
      "measurements": [
        {
          "DurationMs": 13370
        }
      ]
    },
    {
      "benchmark": "video-medium",
      "op": "Backup",
      "measurements": [
        {
          "TotalFiles": 2
        },
        {
          "TotalData": 10737422336
        },
        {
          "DurationMs": 156
        }
      ]
    },
    {
      "benchmark": "video-medium",
      "op": "ManifestLive",
      "measurements": [
        {
          "DurationMs": 12612
        }
      ]
    },
    {
      "benchmark": "video-medium",
      "op": "CompareManiests",
      "measurements": [
        {
          "DurationMs": 10
        }
      ]
    },
    {
      "benchmark": "video-medium",
      "op": "Restore",
      "measurements": [
        {
          "DurationMs": 96756
        }
      ]
    },
    {
      "benchmark": "video-medium",
      "op": "ManifestRestored",
      "measurements": [
        {
          "DurationMs": 12322
        }
      ]
    },
    {
      "benchmark": "video-medium",
      "op": "CompareManiests",
      "measurements": [
        {
          "DurationMs": 10
        }
      ]
    },
    {
      "benchmark": "video-medium",
      "op": "Restore",
      "measurements": [
        {
          "DurationMs": 107721
        }
      ]
    },
    {
      "benchmark": "video-medium",
      "op": "ManifestRestored",
      "measurements": [
        {
          "DurationMs": 10919
        }
      ]
    },
    {
      "benchmark": "video-medium",
      "op": "CompareManiests",
      "measurements": [
        {
          "DurationMs": 10
        }
      ]
    },
    {
      "benchmark": "video-medium",
      "op": "Restore",
      "measurements": [
        {
          "DurationMs": 107812
        }
      ]
    },
    {
      "benchmark": "video-medium",
      "op": "ManifestRestored",
      "measurements": [
        {
          "DurationMs": 13047
        }
      ]
    },
    {
      "benchmark": "video-medium",
      "op": "CompareManiests",
      "measurements": [
        {
          "DurationMs": 10
        }
      ]
    },
    {
      "benchmark": "video-medium",
      "op": "Restore",
      "measurements": [
        {
          "DurationMs": 108220
        }
      ]
    },
    {
      "benchmark": "video-medium",
      "op": "ManifestRestored",
      "measurements": [
        {
          "DurationMs": 11745
        }
      ]
    },
    {
      "benchmark": "video-medium",
      "op": "CompareManiests",
      "measurements": [
        {
          "DurationMs": 10
        }
      ]
    },
    {
      "benchmark": "video-medium",
      "op": "Stop",
      "measurements": [
        {
          "DurationMs": 565
        }
      ]
    }
  ],
  "obnam_version": "obnam-backup 0.7.0",
  "obnam_commit": "84f24230eb0e9190f5862e324cc55fb5ef14cf07",
  "obnam_benchmark_version": "v0.1.0+2 (ed1c89907 2022-01-31) dirty 7 modifications",
  "benchmark_started": "2022-11-08T114909",
  "hostname": "obnam-bench",
  "host_cpus": 4,
  "host_ram": 4121980928
}