{
  "measurements": [
    {
      "benchmark": "maildir-mini",
      "op": "Start",
      "measurements": [
        {
          "DurationMs": 246
        }
      ]
    },
    {
      "benchmark": "maildir-mini",
      "op": "Create",
      "measurements": [
        {
          "DurationMs": 184
        }
      ]
    },
    {
      "benchmark": "maildir-mini",
      "op": "ManifestLive",
      "measurements": [
        {
          "DurationMs": 434
        }
      ]
    },
    {
      "benchmark": "maildir-mini",
      "op": "Backup",
      "measurements": [
        {
          "TotalFiles": 10001
        },
        {
          "TotalData": 41119744
        },
        {
          "DurationMs": 37543
        }
      ]
    },
    {
      "benchmark": "maildir-mini",
      "op": "ManifestLive",
      "measurements": [
        {
          "DurationMs": 348
        }
      ]
    },
    {
      "benchmark": "maildir-mini",
      "op": "CompareManiests",
      "measurements": [
        {
          "DurationMs": 10
        }
      ]
    },
    {
      "benchmark": "maildir-mini",
      "op": "ManifestLive",
      "measurements": [
        {
          "DurationMs": 388
        }
      ]
    },
    {
      "benchmark": "maildir-mini",
      "op": "Backup",
      "measurements": [
        {
          "TotalFiles": 10001
        },
        {
          "TotalData": 41119744
        },
        {
          "DurationMs": 577
        }
      ]
    },
    {
      "benchmark": "maildir-mini",
      "op": "ManifestLive",
      "measurements": [
        {
          "DurationMs": 366
        }
      ]
    },
    {
      "benchmark": "maildir-mini",
      "op": "CompareManiests",
      "measurements": [
        {
          "DurationMs": 10
        }
      ]
    },
    {
      "benchmark": "maildir-mini",
      "op": "ManifestLive",
      "measurements": [
        {
          "DurationMs": 373
        }
      ]
    },
    {
      "benchmark": "maildir-mini",
      "op": "Backup",
      "measurements": [
        {
          "TotalFiles": 10001
        },
        {
          "TotalData": 41119744
        },
        {
          "DurationMs": 440
        }
      ]
    },
    {
      "benchmark": "maildir-mini",
      "op": "ManifestLive",
      "measurements": [
        {
          "DurationMs": 371
        }
      ]
    },
    {
      "benchmark": "maildir-mini",
      "op": "CompareManiests",
      "measurements": [
        {
          "DurationMs": 10
        }
      ]
    },
    {
      "benchmark": "maildir-mini",
      "op": "ManifestLive",
      "measurements": [
        {
          "DurationMs": 365
        }
      ]
    },
    {
      "benchmark": "maildir-mini",
      "op": "Backup",
      "measurements": [
        {
          "TotalFiles": 10001
        },
        {
          "TotalData": 41119744
        },
        {
          "DurationMs": 442
        }
      ]
    },
    {
      "benchmark": "maildir-mini",
      "op": "ManifestLive",
      "measurements": [
        {
          "DurationMs": 364
        }
      ]
    },
    {
      "benchmark": "maildir-mini",
      "op": "CompareManiests",
      "measurements": [
        {
          "DurationMs": 10
        }
      ]
    },
    {
      "benchmark": "maildir-mini",
      "op": "Restore",
      "measurements": [
        {
          "DurationMs": 2513
        }
      ]
    },
    {
      "benchmark": "maildir-mini",
      "op": "ManifestRestored",
      "measurements": [
        {
          "DurationMs": 313
        }
      ]
    },
    {
      "benchmark": "maildir-mini",
      "op": "CompareManiests",
      "measurements": [
        {
          "DurationMs": 10
        }
      ]
    },
    {
      "benchmark": "maildir-mini",
      "op": "Restore",
      "measurements": [
        {
          "DurationMs": 2334
        }
      ]
    },
    {
      "benchmark": "maildir-mini",
      "op": "ManifestRestored",
      "measurements": [
        {
          "DurationMs": 363
        }
      ]
    },
    {
      "benchmark": "maildir-mini",
      "op": "CompareManiests",
      "measurements": [
        {
          "DurationMs": 10
        }
      ]
    },
    {
      "benchmark": "maildir-mini",
      "op": "Restore",
      "measurements": [
        {
          "DurationMs": 2374
        }
      ]
    },
    {
      "benchmark": "maildir-mini",
      "op": "ManifestRestored",
      "measurements": [
        {
          "DurationMs": 388
        }
      ]
    },
    {
      "benchmark": "maildir-mini",
      "op": "CompareManiests",
      "measurements": [
        {
          "DurationMs": 10
        }
      ]
    },
    {
      "benchmark": "maildir-mini",
      "op": "Restore",
      "measurements": [
        {
          "DurationMs": 2320
        }
      ]
    },
    {
      "benchmark": "maildir-mini",
      "op": "ManifestRestored",
      "measurements": [
        {
          "DurationMs": 344
        }
      ]
    },
    {
      "benchmark": "maildir-mini",
      "op": "CompareManiests",
      "measurements": [
        {
          "DurationMs": 10
        }
      ]
    },
    {
      "benchmark": "maildir-mini",
      "op": "Stop",
      "measurements": [
        {
          "DurationMs": 540
        }
      ]
    },
    {
      "benchmark": "video-small",
      "op": "Start",
      "measurements": [
        {
          "DurationMs": 157
        }
      ]
    },
    {
      "benchmark": "video-small",
      "op": "Create",
      "measurements": [
        {
          "DurationMs": 15
        }
      ]
    },
    {
      "benchmark": "video-small",
      "op": "ManifestLive",
      "measurements": [
        {
          "DurationMs": 14
        }
      ]
    },
    {
      "benchmark": "video-small",
      "op": "Backup",
      "measurements": [
        {
          "TotalFiles": 5
        },
        {
          "TotalData": 4198400
        },
        {
          "DurationMs": 263
        }
      ]
    },
    {
      "benchmark": "video-small",
      "op": "ManifestLive",
      "measurements": [
        {
          "DurationMs": 15
        }
      ]
    },
    {
      "benchmark": "video-small",
      "op": "CompareManiests",
      "measurements": [
        {
          "DurationMs": 10
        }
      ]
    },
    {
      "benchmark": "video-small",
      "op": "ManifestLive",
      "measurements": [
        {
          "DurationMs": 15
        }
      ]
    },
    {
      "benchmark": "video-small",
      "op": "Backup",
      "measurements": [
        {
          "TotalFiles": 5
        },
        {
          "TotalData": 4198400
        },
        {
          "DurationMs": 82
        }
      ]
    },
    {
      "benchmark": "video-small",
      "op": "ManifestLive",
      "measurements": [
        {
          "DurationMs": 14
        }
      ]
    },
    {
      "benchmark": "video-small",
      "op": "CompareManiests",
      "measurements": [
        {
          "DurationMs": 10
        }
      ]
    },
    {
      "benchmark": "video-small",
      "op": "ManifestLive",
      "measurements": [
        {
          "DurationMs": 15
        }
      ]
    },
    {
      "benchmark": "video-small",
      "op": "Backup",
      "measurements": [
        {
          "TotalFiles": 5
        },
        {
          "TotalData": 4198400
        },
        {
          "DurationMs": 73
        }
      ]
    },
    {
      "benchmark": "video-small",
      "op": "ManifestLive",
      "measurements": [
        {
          "DurationMs": 15
        }
      ]
    },
    {
      "benchmark": "video-small",
      "op": "CompareManiests",
      "measurements": [
        {
          "DurationMs": 10
        }
      ]
    },
    {
      "benchmark": "video-small",
      "op": "ManifestLive",
      "measurements": [
        {
          "DurationMs": 13
        }
      ]
    },
    {
      "benchmark": "video-small",
      "op": "Backup",
      "measurements": [
        {
          "TotalFiles": 5
        },
        {
          "TotalData": 4198400
        },
        {
          "DurationMs": 71
        }
      ]
    },
    {
      "benchmark": "video-small",
      "op": "ManifestLive",
      "measurements": [
        {
          "DurationMs": 14
        }
      ]
    },
    {
      "benchmark": "video-small",
      "op": "CompareManiests",
      "measurements": [
        {
          "DurationMs": 10
        }
      ]
    },
    {
      "benchmark": "video-small",
      "op": "Restore",
      "measurements": [
        {
          "DurationMs": 61
        }
      ]
    },
    {
      "benchmark": "video-small",
      "op": "ManifestRestored",
      "measurements": [
        {
          "DurationMs": 14
        }
      ]
    },
    {
      "benchmark": "video-small",
      "op": "CompareManiests",
      "measurements": [
        {
          "DurationMs": 10
        }
      ]
    },
    {
      "benchmark": "video-small",
      "op": "Restore",
      "measurements": [
        {
          "DurationMs": 62
        }
      ]
    },
    {
      "benchmark": "video-small",
      "op": "ManifestRestored",
      "measurements": [
        {
          "DurationMs": 14
        }
      ]
    },
    {
      "benchmark": "video-small",
      "op": "CompareManiests",
      "measurements": [
        {
          "DurationMs": 10
        }
      ]
    },
    {
      "benchmark": "video-small",
      "op": "Restore",
      "measurements": [
        {
          "DurationMs": 61
        }
      ]
    },
    {
      "benchmark": "video-small",
      "op": "ManifestRestored",
      "measurements": [
        {
          "DurationMs": 15
        }
      ]
    },
    {
      "benchmark": "video-small",
      "op": "CompareManiests",
      "measurements": [
        {
          "DurationMs": 10
        }
      ]
    },
    {
      "benchmark": "video-small",
      "op": "Restore",
      "measurements": [
        {
          "DurationMs": 62
        }
      ]
    },
    {
      "benchmark": "video-small",
      "op": "ManifestRestored",
      "measurements": [
        {
          "DurationMs": 14
        }
      ]
    },
    {
      "benchmark": "video-small",
      "op": "CompareManiests",
      "measurements": [
        {
          "DurationMs": 10
        }
      ]
    },
    {
      "benchmark": "video-small",
      "op": "Stop",
      "measurements": [
        {
          "DurationMs": 13
        }
      ]
    }
  ],
  "obnam_version": "obnam-backup 0.7.1",
  "obnam_commit": "491d6a3556f31d8bfd8b6023a0cb34f10d612516",
  "obnam_benchmark_version": "v0.1.0+2 (ed1c89907 2022-01-31) dirty 7 modifications",
  "benchmark_started": "2022-03-08T072403",
  "hostname": "obnam-bench",
  "host_cpus": 4,
  "host_ram": 4121747456
}